…
``` r
raw %>% 
  subset(select= date) %>% 
  group_by(date) %>% 
  summarise(
    count = n()
  ) %>% 
  mutate(
    total_sum = cumsum(count)
  ) %>% 
  arrange(date)
```

    ## # A tibble: 59 x 3
    ##    date       count total_sum
    ##    <date>     <int>     <int>
    ##  1 2020-01-22    80        80
    ##  2 2020-01-23   308       388
    ##  3 2020-01-24  1109      1497
    ##  4 2020-01-25  1266      2763
    ##  5 2020-01-26  1540      4303
    ##  6 2020-01-27  1309      5612
    ##  7 2020-01-28  1696      7308
    ##  8 2020-01-29  3669     10977
    ##  9 2020-01-30  3913     14890
    ## 10 2020-01-31  3339     18229
    ## # ... with 49 more rows

``` r
raw %>% 
  group_by(proj_state) %>% 
  summarise(
    count = n()
  ) %>% 
  arrange(-count)
```

    ## # A tibble: 52 x 2
    ##    proj_state   count
    ##    <fct>        <int>
    ##  1 California   25839
    ##  2 Texas        15195
    ##  3 New York     13020
    ##  4 Florida       8596
    ##  5 Pennsylvania  5080
    ##  6 Georgia       5077
    ##  7 Washington    4847
    ##  8 Illinois      4768
    ##  9 Virginia      4231
    ## 10 Ohio          4039
    ## # ... with 42 more rows
